{
    "type": "object",
    "properties": {
        "version": {
            "constant": "0.1.0",
            "description": "Version of this descriptor"
        },
        "meta": {
            "type": "object",
            "description": "Meta data about entities",
            "properties": {
                "id": {
                    "type": "string",
                    "description": "A unique id for the device"
                },
                "location": {
                    "type": "string"
                },
                "name": {
                    "type": "string"
                },
                "class": {
                    "constant": "class.device.sensor.motion"
                },
                "link": {
                    "constant": "",
                    "description": "URL of the entity on our product pages"
                }
            },
            "required": [ "class", "id"]
        },
        "event": {
            "type": "object",
            "properties": {
                "eventMotionDetected": {
                    "type": "object",
                    "properties": {
                        "type": {
                            "constant": "event.device.sensor.motion_detected"
                        },
                        "origin": {
                            "$ref": "#/meta"
                        }
                    },
                    "required": [ "type", "origin" ]
                }
            }
        }
    }
}
