{
    "type": "object",
    "properties": {
        "version": {
            "constant": "0.1.0",
            "description": "Version of this descriptor"
        },

        "meta": {
            "type": "object",
            "description": "Meta data about entities",
            "properties": {
                "id": {
                    "type": "string",
                    "description": "A unique id for the device"
                },
                "location": {
                    "type": "string"
                },
                "name": {
                    "type": "string"
                },
                "class": {
                    "constant": "class.device.keyfob.remote"
                },
                "link": {
                    "constant": "",
                    "description": "URL of the entity on our product pages"
                }
            },
            "required": ["class", "id"]
        },

        "event": {
            "type": "object",
            "properties": {
                "eventRemoteArm": {
                    "type": "object",
                    "properties": {
                        "type": {
                            "constant": "event.device.sensor.remote.arm"
                        },
                        "origin": {
                            "$ref": "#/properties/meta"
                        }
                    },
                    "required": ["type", "origin"]
                },
                "eventRemoteDisarm": {
                    "type": "object",
                    "properties": {
                        "type": {
                            "constant": "event.device.sensor.remote.disarm"
                        },
                        "origin": {
                            "$ref": "#/properties/meta"
                        }
                    },
                    "required": ["type", "origin"]
                },
                "eventRemoteIndoor": {
                    "type": "object",
                    "properties": {
                        "type": {
                            "constant": "event.device.sensor.remote.indoor"
                        },
                        "origin": {
                            "$ref": "#/properties/meta"
                        }
                    },
                    "required": ["type", "origin"]
                },
                "eventRemoteSuppress": {
                    "type": "object",
                    "properties": {
                        "type": {
                            "constant": "event.device.sensor.remote.suppress"
                        },
                        "origin": {
                            "$ref": "#/properties/meta"
                        }
                    },
                    "required": ["type", "origin"]
                },
                "eventBatteryLow": {
                    "type": "object",
                    "properties": {
                        "type": {
                            "constant": "event.device.sensor.remote.batter_low"
                        },
                        "origin": {
                            "$ref": "#/properties/meta"
                        }
                    },
                    "required": ["type", "origin"]
                }
            },
            "required": [ "eventRemoteArm", "eventRemoteDisarm", "eventRemoteIndoor", "eventRemoteSuppress", "eventBatteryLow" ]
        }

    },

    "required": ["version", "meta", "event"]
}
