{
    "type": "object",
    "definitions": {
        "origin": {
            "type": "object",
            "properties": {
                "id": {
                    "type": "string"
                }
            },
            "required": ["id"]
        },
        "context": {
            "type": "object",
            "description": "Contextual information about the device including: name, location  ",
            "properties": {
                "name": {
                    "type": "string",
                    "description": "Name of the device"
                },
                "location": {
                    "type": "string",
                    "description": "Its location"
                }
            },
            "required": ["name", "location"]
        }
    },
    "properties": {
        "class": {
            "constant": "class/device/sensor/temperature"
        },
        "id": {
            "type": "string"
        },
        "link": {
            "constant": "https://evolas.vn/products/sensor/temperature"
        },
        "name": {
            "type": "object",
            "properties": {
                "vi": {
                    "constant": "Cảm biến nhiệt độ"
                },
                "en": {
                    "constant": "Temperature sensor"
                }
            }
        },
        "event": {
            "type": "object",
            "properties": {
                "eventUpdate": {
                    "type": "object",
                    "properties": {
                        "type": {
                            "constant": "event/device/sensor/temperature/update"
                        },

                        "name": {
                            "type": "object",
                            "properties": {
                                "vi": {
                                    "constant": "cập nhật"
                                },
                                "en": {
                                    "constant": "update"
                                }
                            }
                        },

                        "origin": {
                            "$ref": "#/definitions/origin"
                        },

                        "context": {
                            "$ref": "#/definitions/context"
                        },

                        "params": {
                            "type": "object",
                            "properties": {
                                "temperature": {
                                    "type": "object",
                                    "properties": {
                                        "value": {
                                            "type": "number"
                                        },
                                        "updatedAt": {
                                            "type": "number",
                                            "description": "Unix timestamp at which the value is collected."
                                        }
                                    },
                                    "required": ["value", "updatedAt"]
                                }
                            }
                        },

                        "required": ["type", "origin", "params"]
                    }
                },

                "eventBatteryLow": {
                    "type": "object",
                    "properties": {
                        "type": {
                            "constant": "event/device/sensor/temperature/battery/low"
                        },
                        "name": {
                            "type": "object",
                            "properties": {
                                "vi": {
                                    "constant": "pin yếu"
                                },
                                "en": {
                                    "constant": "battery low"
                                }
                            }
                        },
                        "origin": {
                            "$ref": "#/definitions/origin"
                        },

                        "context": {
                            "$ref": "#/definitions/context"
                        },

                        "params": {
                            "type": "object",
                            "properties": {
                                "battery": {
                                    "type": "object",
                                    "properties": {
                                        "value": {
                                            "constant": 0
                                        },
                                        "updatedAt": {
                                            "type": "number",
                                            "description": "Unix timestamp at which the value is collected."
                                        }
                                    },
                                    "required": ["value", "updatedAt"]
                                }
                            }
                        },

                        "required": ["type", "origin", "params"]
                    }
                },

                "eventBatteryNormal": {
                    "type": "object",
                    "properties": {
                        "type": {
                            "constant": "event/device/sensor/temperature/battery/normal"
                        },
                        "name": {
                            "type": "object",
                            "properties": {
                                "vi": {
                                    "constant": "pin bình thường"
                                },
                                "en": {
                                    "constant": "battery normal"
                                }
                            }
                        },
                        "origin": {
                            "$ref": "#/definitions/origin"
                        },
                        "context": {
                            "$ref": "#/definitions/context"
                        },

                        "params": {
                            "type": "object",
                            "properties": {
                                "battery": {
                                    "type": "object",
                                    "properties": {
                                        "value": {
                                            "constant": 1
                                        },
                                        "updatedAt": {
                                            "type": "number",
                                            "description": "Unix timestamp at which the value is collected."
                                        }
                                    },
                                    "required": ["value", "updatedAt"]
                                }
                            }
                        },

                        "required": ["type", "origin", "params"]
                    }
                },

                "eventSignalPoor": {
                    "type": "object",
                    "properties": {
                        "type": {
                            "constant": "event/device/sensor/temperature/signal/poor"
                        },
                        "name": {
                            "type": "object",
                            "properties": {
                                "vi": {
                                    "constant": "tín hiệu yếu"
                                },
                                "en": {
                                    "constant": "signal poor"
                                }
                            }
                        },
                        "origin": {
                            "$ref": "#/definitions/origin"
                        },
                        "context": {
                            "$ref": "#/definitions/context"
                        },

                        "params": {
                            "type": "object",
                            "properties": {
                                "signal": {
                                    "type": "object",
                                    "properties": {
                                        "value": {
                                            "constant": 0
                                        },
                                        "updatedAt": {
                                            "type": "number",
                                            "description": "Unix timestamp at which the value is collected."
                                        }
                                    },
                                    "required": ["value", "updatedAt"]
                                }
                            }
                        },

                        "required": ["type", "origin", "params"]
                    }
                },

                "eventSignalNormal": {
                    "type": "object",
                    "properties": {
                        "type": {
                            "constant": "event/device/sensor/temperature/signal/normal"
                        },
                        "name": {
                            "type": "object",
                            "properties": {
                                "vi": {
                                    "constant": "tín hiệu bình thường"
                                },
                                "en": {
                                    "constant": "signal normal"
                                }
                            }
                        },
                        "origin": {
                            "$ref": "#/definitions/origin"
                        },
                        "context": {
                            "$ref": "#/definitions/context"
                        },

                        "params": {
                            "type": "object",
                            "properties": {
                                "signal": {
                                    "type": "object",
                                    "properties": {
                                        "value": {
                                            "constant": 1
                                        },
                                        "updatedAt": {
                                            "type": "number",
                                            "description": "Unix timestamp at which the value is collected."
                                        }
                                    },
                                    "required": ["value", "updatedAt"]
                                }
                            }
                        },

                        "required": ["type", "origin", "params"]
                    }
                }

            }
        }
    }
}
